Data Thinking with R
…
ubike %>%
  group_by(sarea, sna) %>%
  summarise(mean(bemp), median(bemp), max(bemp), min(bemp), sd(bemp))

# A tibble: 231 x 7
# Groups:   sarea [?]
   sarea  sna                 `mean(bemp)` `median(bemp)` `max(bemp)` `min(bemp)` `sd(bemp)`
   <fct>  <fct>                      <dbl>          <dbl>       <dbl>       <dbl>      <dbl>
 1 三重區 三重商工                    47.6           51.0        62.0       25.0       10.7 
 2 三重區 三重國民運動中心            31.2           32.0        51.0        0         11.4 
 3 三重區 捷運三重站(3號出口)         24.8           26.0        33.0        9.00       6.15
 4 三重區 明志國中                    29.6           29.0        40.0       20.0        5.88
 5 三重區 興華公園                    26.5           27.0        38.0       10.0        5.79
 6 三重區 重陽國小                    23.5           23.0        38.0       10.0        5.69
 7 中和區 中和公園                    31.4           32.0        44.0       10.0        9.48
 8 中和區 捷運永安市場站              52.9           53.0        72.0       18.0       13.3 
 9 中和區 秀山國小                    28.5           27.0        59.0        0         13.3 
10 中山區 中山行政中心                20.2           20.0        30.0        7.00       6.63
# ... with 221 more rows
…
